<?xml version="1.0" encoding="UTF-8" standalone="no"?>
<svg
   xmlns:dc="http://purl.org/dc/elements/1.1/"
   xmlns:cc="http://creativecommons.org/ns#"
   xmlns:rdf="http://www.w3.org/1999/02/22-rdf-syntax-ns#"
   xmlns:svg="http://www.w3.org/2000/svg"
   xmlns="http://www.w3.org/2000/svg"
   xmlns:sodipodi="http://sodipodi.sourceforge.net/DTD/sodipodi-0.dtd"
   xmlns:inkscape="http://www.inkscape.org/namespaces/inkscape"
   inkscape:version="1.0 (4035a4fb49, 2020-05-01)"
   sodipodi:docname="bg-nuxt.svg"
   viewBox="0 0 1360 768"
   height="768"
   width="1360"
   id="svg10"
   version="1.1">
  <metadata
     id="metadata16">
    <rdf:RDF>
      <cc:Work
         rdf:about="">
        <dc:format>image/svg+xml</dc:format>
        <dc:type
           rdf:resource="http://purl.org/dc/dcmitype/StillImage" />
        <dc:title></dc:title>
      </cc:Work>
    </rdf:RDF>
  </metadata>
  <defs
     id="defs14">
    <inkscape:perspective
       id="perspective2838"
       inkscape:persp3d-origin="578.76977 : -75.107213 : 1"
       inkscape:vp_z="1258.7698 : 52.892787 : 1"
       inkscape:vp_y="0 : 1000 : 0"
       inkscape:vp_x="-238.31283 : 31.803157 : 1"
       sodipodi:type="inkscape:persp3d" />
  </defs>
  <sodipodi:namedview
     inkscape:current-layer="g18"
     inkscape:window-maximized="1"
     inkscape:window-y="32"
     inkscape:window-x="-8"
     inkscape:cy="435.31152"
     inkscape:cx="298.52092"
     inkscape:zoom="0.47416666"
     showgrid="false"
     id="namedview12"
     inkscape:window-height="705"
     inkscape:window-width="1360"
     inkscape:pageshadow="2"
     inkscape:pageopacity="0"
     guidetolerance="10"
     gridtolerance="10"
     objecttolerance="10"
     borderopacity="1"
     bordercolor="#666666"
     pagecolor="#ffffff" />
  <g
     id="g18"
     inkscape:label="Image"
     inkscape:groupmode="layer">
    <path
       d="M 651.6696,767.66263 295.45613,1070.8717 -170.82606,1033.392 -474.03517,677.17851 -436.55542,210.89633 -80.341944,-92.312782 385.94024,-54.833034 689.14935,301.38045 Z"
       inkscape:randomized="0"
       inkscape:rounded="0"
       inkscape:flatsided="true"
       sodipodi:arg2="0.86560566"
       sodipodi:arg1="0.47290661"
       sodipodi:r2="517.97772"
       sodipodi:r1="611.19196"
       sodipodi:cy="489.27947"
       sodipodi:cx="107.55709"
       sodipodi:sides="8"
       id="path2884"
       style="fill:#00c492;fill-opacity:1;stroke:#00c492;stroke-width:0.839055;stroke-opacity:1"
       sodipodi:type="star" />
  </g>
</svg>
